NOTA = 4,34

==================================
1.
5.0
BUEN TRABAJO!!
==================================
2.
----------------------------------
p1
4.5
-No es claro como ingresar los parámetros a las clases

----------------------------------
p2
4.2

- No es claro como se deben ingrasar los parámetros
-Las funciones se deben poner en la clase, No en el execution
==================================
3.

----------------------------------
p1
4.0
-No definir las funciones en el execution, debe ser en la clase
- Debe documentar de manera correcta los atributos
----------------------------------
p2
4.0
-No definir las funciones en el execution, debe ser en la clase
-Debe documentar de manera correcta los atributos

==================================
4.
5.0
- BUEN TRABAJO!!